verify_simple.adb:6:14: warning: file name does not match unit name, should be "verify2.adb"
verify_simple.adb:15:07: warning: variable "abs_curr_subject" is never read and never assigned
verify_simple.adb:16:07: warning: variable "conc_curr_subject" is never read and never assigned
verify_simple.adb:17:07: warning: variable "channel_index" is never read and never assigned
verify_simple.adb:18:07: warning: variable "offset" is never read and never assigned
