reproducer_major_end_case1.adb:6:40: missing "is"
reproducer_major_end_case1.adb:7:01: "with" can only appear in context clause
reproducer_major_end_case1.adb:29:21: quantified expression is an Ada 2012 feature
reproducer_major_end_case1.adb:29:21: unit must be compiled with -gnat2012 switch
reproducer_major_end_case1.adb:30:24: if expression is an Ada 2012 feature
reproducer_major_end_case1.adb:30:24: unit must be compiled with -gnat2012 switch
reproducer_major_end_case1.adb:33:21: quantified expression is an Ada 2012 feature
reproducer_major_end_case1.adb:33:21: unit must be compiled with -gnat2012 switch
reproducer_major_end_case1.adb:34:27: if expression is an Ada 2012 feature
reproducer_major_end_case1.adb:34:27: unit must be compiled with -gnat2012 switch
reproducer_major_end_case1.adb:52:22: quantified expression is an Ada 2012 feature
reproducer_major_end_case1.adb:52:22: unit must be compiled with -gnat2012 switch
reproducer_major_end_case1.adb:58:21: quantified expression is an Ada 2012 feature
reproducer_major_end_case1.adb:58:21: unit must be compiled with -gnat2012 switch
reproducer_major_end_case1.adb:64:21: quantified expression is an Ada 2012 feature
reproducer_major_end_case1.adb:64:21: unit must be compiled with -gnat2012 switch
reproducer_major_end_case1.adb:68:21: quantified expression is an Ada 2012 feature
reproducer_major_end_case1.adb:68:21: unit must be compiled with -gnat2012 switch
reproducer_major_end_case1.adb:72:21: quantified expression is an Ada 2012 feature
reproducer_major_end_case1.adb:72:21: unit must be compiled with -gnat2012 switch
reproducer_major_end_case1.adb:77:21: quantified expression is an Ada 2012 feature
reproducer_major_end_case1.adb:77:21: unit must be compiled with -gnat2012 switch
reproducer_major_end_case1.adb:78:24: if expression is an Ada 2012 feature
reproducer_major_end_case1.adb:78:24: unit must be compiled with -gnat2012 switch
reproducer_major_end_case1.adb:86:21: quantified expression is an Ada 2012 feature
reproducer_major_end_case1.adb:86:21: unit must be compiled with -gnat2012 switch
reproducer_major_end_case1.adb:87:24: quantified expression is an Ada 2012 feature
reproducer_major_end_case1.adb:87:24: unit must be compiled with -gnat2012 switch
reproducer_major_end_case1.adb:88:27: quantified expression is an Ada 2012 feature
reproducer_major_end_case1.adb:88:27: unit must be compiled with -gnat2012 switch
reproducer_major_end_case1.adb:92:21: quantified expression is an Ada 2012 feature
reproducer_major_end_case1.adb:92:21: unit must be compiled with -gnat2012 switch
reproducer_major_end_case1.adb:93:24: quantified expression is an Ada 2012 feature
reproducer_major_end_case1.adb:93:24: unit must be compiled with -gnat2012 switch
reproducer_major_end_case1.adb:94:27: quantified expression is an Ada 2012 feature
reproducer_major_end_case1.adb:94:27: unit must be compiled with -gnat2012 switch
reproducer_major_end_case1.adb:95:32: if expression is an Ada 2012 feature
reproducer_major_end_case1.adb:95:32: unit must be compiled with -gnat2012 switch
reproducer_major_end_case1.adb:100:21: quantified expression is an Ada 2012 feature
reproducer_major_end_case1.adb:100:21: unit must be compiled with -gnat2012 switch
reproducer_major_end_case1.adb:105:21: quantified expression is an Ada 2012 feature
reproducer_major_end_case1.adb:105:21: unit must be compiled with -gnat2012 switch
reproducer_major_end_case1.adb:106:24: if expression is an Ada 2012 feature
reproducer_major_end_case1.adb:106:24: unit must be compiled with -gnat2012 switch
reproducer_major_end_case1.adb:111:21: quantified expression is an Ada 2012 feature
reproducer_major_end_case1.adb:111:21: unit must be compiled with -gnat2012 switch
reproducer_major_end_case1.adb:112:24: quantified expression is an Ada 2012 feature
reproducer_major_end_case1.adb:112:24: unit must be compiled with -gnat2012 switch
reproducer_major_end_case1.adb:119:21: quantified expression is an Ada 2012 feature
reproducer_major_end_case1.adb:119:21: unit must be compiled with -gnat2012 switch
reproducer_major_end_case1.adb:120:24: if expression is an Ada 2012 feature
reproducer_major_end_case1.adb:120:24: unit must be compiled with -gnat2012 switch
reproducer_major_end_case1.adb:133:21: quantified expression is an Ada 2012 feature
reproducer_major_end_case1.adb:133:21: unit must be compiled with -gnat2012 switch
reproducer_major_end_case1.adb:134:15: if expression is an Ada 2012 feature
reproducer_major_end_case1.adb:134:15: unit must be compiled with -gnat2012 switch
reproducer_major_end_case1.adb:147:21: quantified expression is an Ada 2012 feature
reproducer_major_end_case1.adb:147:21: unit must be compiled with -gnat2012 switch
reproducer_major_end_case1.adb:148:24: if expression is an Ada 2012 feature
reproducer_major_end_case1.adb:148:24: unit must be compiled with -gnat2012 switch
reproducer_major_end_case1.adb:165:21: quantified expression is an Ada 2012 feature
reproducer_major_end_case1.adb:165:21: unit must be compiled with -gnat2012 switch
reproducer_major_end_case1.adb:166:24: quantified expression is an Ada 2012 feature
reproducer_major_end_case1.adb:166:24: unit must be compiled with -gnat2012 switch
reproducer_major_end_case1.adb:167:27: quantified expression is an Ada 2012 feature
reproducer_major_end_case1.adb:167:27: unit must be compiled with -gnat2012 switch
reproducer_major_end_case1.adb:168:32: quantified expression is an Ada 2012 feature
reproducer_major_end_case1.adb:168:32: unit must be compiled with -gnat2012 switch
reproducer_major_end_case1.adb:169:37: if expression is an Ada 2012 feature
reproducer_major_end_case1.adb:169:37: unit must be compiled with -gnat2012 switch
reproducer_major_end_case1.adb:175:21: quantified expression is an Ada 2012 feature
reproducer_major_end_case1.adb:175:21: unit must be compiled with -gnat2012 switch
reproducer_major_end_case1.adb:176:24: quantified expression is an Ada 2012 feature
reproducer_major_end_case1.adb:176:24: unit must be compiled with -gnat2012 switch
reproducer_major_end_case1.adb:177:27: quantified expression is an Ada 2012 feature
reproducer_major_end_case1.adb:177:27: unit must be compiled with -gnat2012 switch
reproducer_major_end_case1.adb:178:32: quantified expression is an Ada 2012 feature
reproducer_major_end_case1.adb:178:32: unit must be compiled with -gnat2012 switch
reproducer_major_end_case1.adb:179:37: if expression is an Ada 2012 feature
reproducer_major_end_case1.adb:179:37: unit must be compiled with -gnat2012 switch
reproducer_major_end_case1.adb:185:21: quantified expression is an Ada 2012 feature
reproducer_major_end_case1.adb:185:21: unit must be compiled with -gnat2012 switch
reproducer_major_end_case1.adb:186:24: quantified expression is an Ada 2012 feature
reproducer_major_end_case1.adb:186:24: unit must be compiled with -gnat2012 switch
reproducer_major_end_case1.adb:187:27: quantified expression is an Ada 2012 feature
reproducer_major_end_case1.adb:187:27: unit must be compiled with -gnat2012 switch
reproducer_major_end_case1.adb:188:32: quantified expression is an Ada 2012 feature
reproducer_major_end_case1.adb:188:32: unit must be compiled with -gnat2012 switch
reproducer_major_end_case1.adb:189:37: if expression is an Ada 2012 feature
reproducer_major_end_case1.adb:189:37: unit must be compiled with -gnat2012 switch
reproducer_major_end_case1.adb:195:21: quantified expression is an Ada 2012 feature
reproducer_major_end_case1.adb:195:21: unit must be compiled with -gnat2012 switch
reproducer_major_end_case1.adb:196:24: quantified expression is an Ada 2012 feature
reproducer_major_end_case1.adb:196:24: unit must be compiled with -gnat2012 switch
reproducer_major_end_case1.adb:197:27: quantified expression is an Ada 2012 feature
reproducer_major_end_case1.adb:197:27: unit must be compiled with -gnat2012 switch
reproducer_major_end_case1.adb:198:32: quantified expression is an Ada 2012 feature
reproducer_major_end_case1.adb:198:32: unit must be compiled with -gnat2012 switch
reproducer_major_end_case1.adb:199:37: if expression is an Ada 2012 feature
reproducer_major_end_case1.adb:199:37: unit must be compiled with -gnat2012 switch
reproducer_major_end_case1.adb:205:22: quantified expression is an Ada 2012 feature
reproducer_major_end_case1.adb:205:22: unit must be compiled with -gnat2012 switch
reproducer_major_end_case1.adb:211:21: quantified expression is an Ada 2012 feature
reproducer_major_end_case1.adb:211:21: unit must be compiled with -gnat2012 switch
reproducer_major_end_case1.adb:212:24: if expression is an Ada 2012 feature
reproducer_major_end_case1.adb:212:24: unit must be compiled with -gnat2012 switch
reproducer_major_end_case1.adb:213:27: if expression is an Ada 2012 feature
reproducer_major_end_case1.adb:213:27: unit must be compiled with -gnat2012 switch
reproducer_major_end_case1.adb:220:27: if expression is an Ada 2012 feature
reproducer_major_end_case1.adb:220:27: unit must be compiled with -gnat2012 switch
reproducer_major_end_case1.adb:232:21: quantified expression is an Ada 2012 feature
reproducer_major_end_case1.adb:232:21: unit must be compiled with -gnat2012 switch
reproducer_major_end_case1.adb:233:24: if expression is an Ada 2012 feature
reproducer_major_end_case1.adb:233:24: unit must be compiled with -gnat2012 switch
reproducer_major_end_case1.adb:238:21: quantified expression is an Ada 2012 feature
reproducer_major_end_case1.adb:238:21: unit must be compiled with -gnat2012 switch
reproducer_major_end_case1.adb:239:24: if expression is an Ada 2012 feature
reproducer_major_end_case1.adb:239:24: unit must be compiled with -gnat2012 switch
reproducer_major_end_case1.adb:267:21: quantified expression is an Ada 2012 feature
reproducer_major_end_case1.adb:267:21: unit must be compiled with -gnat2012 switch
reproducer_major_end_case1.adb:268:24: if expression is an Ada 2012 feature
reproducer_major_end_case1.adb:268:24: unit must be compiled with -gnat2012 switch
reproducer_major_end_case1.adb:269:30: if expression is an Ada 2012 feature
reproducer_major_end_case1.adb:269:30: unit must be compiled with -gnat2012 switch
reproducer_major_end_case1.adb:270:32: if expression is an Ada 2012 feature
reproducer_major_end_case1.adb:270:32: unit must be compiled with -gnat2012 switch
reproducer_major_end_case1.adb:276:21: quantified expression is an Ada 2012 feature
reproducer_major_end_case1.adb:276:21: unit must be compiled with -gnat2012 switch
reproducer_major_end_case1.adb:277:24: if expression is an Ada 2012 feature
reproducer_major_end_case1.adb:277:24: unit must be compiled with -gnat2012 switch
reproducer_major_end_case1.adb:278:30: if expression is an Ada 2012 feature
reproducer_major_end_case1.adb:278:30: unit must be compiled with -gnat2012 switch
reproducer_major_end_case1.adb:279:32: if expression is an Ada 2012 feature
reproducer_major_end_case1.adb:279:32: unit must be compiled with -gnat2012 switch
reproducer_major_end_case1.adb:292:21: quantified expression is an Ada 2012 feature
reproducer_major_end_case1.adb:292:21: unit must be compiled with -gnat2012 switch
reproducer_major_end_case1.adb:293:24: if expression is an Ada 2012 feature
reproducer_major_end_case1.adb:293:24: unit must be compiled with -gnat2012 switch
reproducer_major_end_case1.adb:294:30: if expression is an Ada 2012 feature
reproducer_major_end_case1.adb:294:30: unit must be compiled with -gnat2012 switch
reproducer_major_end_case1.adb:295:32: if expression is an Ada 2012 feature
reproducer_major_end_case1.adb:295:32: unit must be compiled with -gnat2012 switch
reproducer_major_end_case1.adb:304:21: quantified expression is an Ada 2012 feature
reproducer_major_end_case1.adb:304:21: unit must be compiled with -gnat2012 switch
reproducer_major_end_case1.adb:305:24: if expression is an Ada 2012 feature
reproducer_major_end_case1.adb:305:24: unit must be compiled with -gnat2012 switch
reproducer_major_end_case1.adb:306:30: if expression is an Ada 2012 feature
reproducer_major_end_case1.adb:306:30: unit must be compiled with -gnat2012 switch
reproducer_major_end_case1.adb:307:32: if expression is an Ada 2012 feature
reproducer_major_end_case1.adb:307:32: unit must be compiled with -gnat2012 switch
reproducer_major_end_case1.adb:315:21: quantified expression is an Ada 2012 feature
reproducer_major_end_case1.adb:315:21: unit must be compiled with -gnat2012 switch
reproducer_major_end_case1.adb:316:24: if expression is an Ada 2012 feature
reproducer_major_end_case1.adb:316:24: unit must be compiled with -gnat2012 switch
reproducer_major_end_case1.adb:317:30: if expression is an Ada 2012 feature
reproducer_major_end_case1.adb:317:30: unit must be compiled with -gnat2012 switch
reproducer_major_end_case1.adb:318:32: if expression is an Ada 2012 feature
reproducer_major_end_case1.adb:318:32: unit must be compiled with -gnat2012 switch
reproducer_major_end_case1.adb:329:21: quantified expression is an Ada 2012 feature
reproducer_major_end_case1.adb:329:21: unit must be compiled with -gnat2012 switch
reproducer_major_end_case1.adb:330:24: quantified expression is an Ada 2012 feature
reproducer_major_end_case1.adb:330:24: unit must be compiled with -gnat2012 switch
reproducer_major_end_case1.adb:338:21: quantified expression is an Ada 2012 feature
reproducer_major_end_case1.adb:338:21: unit must be compiled with -gnat2012 switch
reproducer_major_end_case1.adb:339:24: if expression is an Ada 2012 feature
reproducer_major_end_case1.adb:339:24: unit must be compiled with -gnat2012 switch
reproducer_major_end_case1.adb:340:30: if expression is an Ada 2012 feature
reproducer_major_end_case1.adb:340:30: unit must be compiled with -gnat2012 switch
reproducer_major_end_case1.adb:386:21: quantified expression is an Ada 2012 feature
reproducer_major_end_case1.adb:386:21: unit must be compiled with -gnat2012 switch
reproducer_major_end_case1.adb:387:24: if expression is an Ada 2012 feature
reproducer_major_end_case1.adb:387:24: unit must be compiled with -gnat2012 switch
reproducer_major_end_case1.adb:388:30: if expression is an Ada 2012 feature
reproducer_major_end_case1.adb:388:30: unit must be compiled with -gnat2012 switch
reproducer_major_end_case1.adb:426:15: quantified expression is an Ada 2012 feature
reproducer_major_end_case1.adb:426:15: unit must be compiled with -gnat2012 switch
reproducer_major_end_case1.adb:427:24: if expression is an Ada 2012 feature
reproducer_major_end_case1.adb:427:24: unit must be compiled with -gnat2012 switch
reproducer_major_end_case1.adb:428:30: if expression is an Ada 2012 feature
reproducer_major_end_case1.adb:428:30: unit must be compiled with -gnat2012 switch
reproducer_major_end_case1.adb:453:21: quantified expression is an Ada 2012 feature
reproducer_major_end_case1.adb:453:21: unit must be compiled with -gnat2012 switch
reproducer_major_end_case1.adb:454:24: if expression is an Ada 2012 feature
reproducer_major_end_case1.adb:454:24: unit must be compiled with -gnat2012 switch
reproducer_major_end_case1.adb:455:29: if expression is an Ada 2012 feature
reproducer_major_end_case1.adb:455:29: unit must be compiled with -gnat2012 switch
reproducer_major_end_case1.adb:470:21: quantified expression is an Ada 2012 feature
reproducer_major_end_case1.adb:470:21: unit must be compiled with -gnat2012 switch
reproducer_major_end_case1.adb:471:24: if expression is an Ada 2012 feature
reproducer_major_end_case1.adb:471:24: unit must be compiled with -gnat2012 switch
reproducer_major_end_case1.adb:490:21: quantified expression is an Ada 2012 feature
reproducer_major_end_case1.adb:490:21: unit must be compiled with -gnat2012 switch
reproducer_major_end_case1.adb:491:24: if expression is an Ada 2012 feature
reproducer_major_end_case1.adb:491:24: unit must be compiled with -gnat2012 switch
reproducer_major_end_case1.adb:492:30: if expression is an Ada 2012 feature
reproducer_major_end_case1.adb:492:30: unit must be compiled with -gnat2012 switch
reproducer_major_end_case1.adb:493:32: if expression is an Ada 2012 feature
reproducer_major_end_case1.adb:493:32: unit must be compiled with -gnat2012 switch
reproducer_major_end_case1.adb:505:24: quantified expression is an Ada 2012 feature
reproducer_major_end_case1.adb:505:24: unit must be compiled with -gnat2012 switch
reproducer_major_end_case1.adb:506:27: if expression is an Ada 2012 feature
reproducer_major_end_case1.adb:506:27: unit must be compiled with -gnat2012 switch
reproducer_major_end_case1.adb:512:38: quantified expression is an Ada 2012 feature
reproducer_major_end_case1.adb:512:38: unit must be compiled with -gnat2012 switch
reproducer_major_end_case1.adb:513:41: if expression is an Ada 2012 feature
reproducer_major_end_case1.adb:513:41: unit must be compiled with -gnat2012 switch
reproducer_major_end_case1.adb:522:24: quantified expression is an Ada 2012 feature
reproducer_major_end_case1.adb:522:24: unit must be compiled with -gnat2012 switch
reproducer_major_end_case1.adb:523:24: if expression is an Ada 2012 feature
reproducer_major_end_case1.adb:523:24: unit must be compiled with -gnat2012 switch
reproducer_major_end_case1.adb:524:30: if expression is an Ada 2012 feature
reproducer_major_end_case1.adb:524:30: unit must be compiled with -gnat2012 switch
reproducer_major_end_case1.adb:525:32: if expression is an Ada 2012 feature
reproducer_major_end_case1.adb:525:32: unit must be compiled with -gnat2012 switch
reproducer_major_end_case1.adb:542:27: quantified expression is an Ada 2012 feature
reproducer_major_end_case1.adb:542:27: unit must be compiled with -gnat2012 switch
reproducer_major_end_case1.adb:543:24: if expression is an Ada 2012 feature
reproducer_major_end_case1.adb:543:24: unit must be compiled with -gnat2012 switch
reproducer_major_end_case1.adb:544:30: if expression is an Ada 2012 feature
reproducer_major_end_case1.adb:544:30: unit must be compiled with -gnat2012 switch
reproducer_major_end_case1.adb:545:32: if expression is an Ada 2012 feature
reproducer_major_end_case1.adb:545:32: unit must be compiled with -gnat2012 switch
reproducer_major_end_case1.adb:556:27: quantified expression is an Ada 2012 feature
reproducer_major_end_case1.adb:556:27: unit must be compiled with -gnat2012 switch
reproducer_major_end_case1.adb:557:24: if expression is an Ada 2012 feature
reproducer_major_end_case1.adb:557:24: unit must be compiled with -gnat2012 switch
reproducer_major_end_case1.adb:558:30: if expression is an Ada 2012 feature
reproducer_major_end_case1.adb:558:30: unit must be compiled with -gnat2012 switch
reproducer_major_end_case1.adb:559:32: if expression is an Ada 2012 feature
reproducer_major_end_case1.adb:559:32: unit must be compiled with -gnat2012 switch
reproducer_major_end_case1.adb:566:27: quantified expression is an Ada 2012 feature
reproducer_major_end_case1.adb:566:27: unit must be compiled with -gnat2012 switch
reproducer_major_end_case1.adb:567:24: if expression is an Ada 2012 feature
reproducer_major_end_case1.adb:567:24: unit must be compiled with -gnat2012 switch
reproducer_major_end_case1.adb:568:30: if expression is an Ada 2012 feature
reproducer_major_end_case1.adb:568:30: unit must be compiled with -gnat2012 switch
reproducer_major_end_case1.adb:569:32: if expression is an Ada 2012 feature
reproducer_major_end_case1.adb:569:32: unit must be compiled with -gnat2012 switch
reproducer_major_end_case1.adb:581:21: quantified expression is an Ada 2012 feature
reproducer_major_end_case1.adb:581:21: unit must be compiled with -gnat2012 switch
reproducer_major_end_case1.adb:582:24: if expression is an Ada 2012 feature
reproducer_major_end_case1.adb:582:24: unit must be compiled with -gnat2012 switch
reproducer_major_end_case1.adb:583:30: if expression is an Ada 2012 feature
reproducer_major_end_case1.adb:583:30: unit must be compiled with -gnat2012 switch
reproducer_major_end_case1.adb:584:32: if expression is an Ada 2012 feature
reproducer_major_end_case1.adb:584:32: unit must be compiled with -gnat2012 switch
reproducer_major_end_case1.adb:592:21: quantified expression is an Ada 2012 feature
reproducer_major_end_case1.adb:592:21: unit must be compiled with -gnat2012 switch
reproducer_major_end_case1.adb:593:24: if expression is an Ada 2012 feature
reproducer_major_end_case1.adb:593:24: unit must be compiled with -gnat2012 switch
reproducer_major_end_case1.adb:612:21: quantified expression is an Ada 2012 feature
reproducer_major_end_case1.adb:612:21: unit must be compiled with -gnat2012 switch
reproducer_major_end_case1.adb:613:24: if expression is an Ada 2012 feature
reproducer_major_end_case1.adb:613:24: unit must be compiled with -gnat2012 switch
reproducer_major_end_case1.adb:614:30: if expression is an Ada 2012 feature
reproducer_major_end_case1.adb:614:30: unit must be compiled with -gnat2012 switch
reproducer_major_end_case1.adb:620:21: quantified expression is an Ada 2012 feature
reproducer_major_end_case1.adb:620:21: unit must be compiled with -gnat2012 switch
reproducer_major_end_case1.adb:621:30: if expression is an Ada 2012 feature
reproducer_major_end_case1.adb:621:30: unit must be compiled with -gnat2012 switch
reproducer_major_end_case1.adb:630:21: quantified expression is an Ada 2012 feature
reproducer_major_end_case1.adb:630:21: unit must be compiled with -gnat2012 switch
reproducer_major_end_case1.adb:631:24: if expression is an Ada 2012 feature
reproducer_major_end_case1.adb:631:24: unit must be compiled with -gnat2012 switch
reproducer_major_end_case1.adb:652:21: quantified expression is an Ada 2012 feature
reproducer_major_end_case1.adb:652:21: unit must be compiled with -gnat2012 switch
reproducer_major_end_case1.adb:653:24: if expression is an Ada 2012 feature
reproducer_major_end_case1.adb:653:24: unit must be compiled with -gnat2012 switch
reproducer_major_end_case1.adb:799:30: quantified expression is an Ada 2012 feature
reproducer_major_end_case1.adb:799:30: unit must be compiled with -gnat2012 switch
reproducer_major_end_case1.adb:824:36: quantified expression is an Ada 2012 feature
reproducer_major_end_case1.adb:824:36: unit must be compiled with -gnat2012 switch
reproducer_major_end_case1.adb:825:30: if expression is an Ada 2012 feature
reproducer_major_end_case1.adb:825:30: unit must be compiled with -gnat2012 switch
reproducer_major_end_case1.adb:837:21: quantified expression is an Ada 2012 feature
reproducer_major_end_case1.adb:837:21: unit must be compiled with -gnat2012 switch
reproducer_major_end_case1.adb:838:24: if expression is an Ada 2012 feature
reproducer_major_end_case1.adb:838:24: unit must be compiled with -gnat2012 switch
reproducer_major_end_case1.adb:854:21: quantified expression is an Ada 2012 feature
reproducer_major_end_case1.adb:854:21: unit must be compiled with -gnat2012 switch
reproducer_major_end_case1.adb:855:24: if expression is an Ada 2012 feature
reproducer_major_end_case1.adb:855:24: unit must be compiled with -gnat2012 switch
reproducer_major_end_case1.adb:856:30: if expression is an Ada 2012 feature
reproducer_major_end_case1.adb:856:30: unit must be compiled with -gnat2012 switch
reproducer_major_end_case1.adb:857:32: if expression is an Ada 2012 feature
reproducer_major_end_case1.adb:857:32: unit must be compiled with -gnat2012 switch
reproducer_major_end_case1.adb:867:21: if expression is an Ada 2012 feature
reproducer_major_end_case1.adb:867:21: unit must be compiled with -gnat2012 switch
reproducer_major_end_case1.adb:873:21: quantified expression is an Ada 2012 feature
reproducer_major_end_case1.adb:873:21: unit must be compiled with -gnat2012 switch
reproducer_major_end_case1.adb:874:24: if expression is an Ada 2012 feature
reproducer_major_end_case1.adb:874:24: unit must be compiled with -gnat2012 switch
reproducer_major_end_case1.adb:892:22: quantified expression is an Ada 2012 feature
reproducer_major_end_case1.adb:892:22: unit must be compiled with -gnat2012 switch
reproducer_major_end_case1.adb:898:21: quantified expression is an Ada 2012 feature
reproducer_major_end_case1.adb:898:21: unit must be compiled with -gnat2012 switch
reproducer_major_end_case1.adb:904:21: quantified expression is an Ada 2012 feature
reproducer_major_end_case1.adb:904:21: unit must be compiled with -gnat2012 switch
reproducer_major_end_case1.adb:908:21: quantified expression is an Ada 2012 feature
reproducer_major_end_case1.adb:908:21: unit must be compiled with -gnat2012 switch
reproducer_major_end_case1.adb:912:21: quantified expression is an Ada 2012 feature
reproducer_major_end_case1.adb:912:21: unit must be compiled with -gnat2012 switch
reproducer_major_end_case1.adb:917:21: quantified expression is an Ada 2012 feature
reproducer_major_end_case1.adb:917:21: unit must be compiled with -gnat2012 switch
reproducer_major_end_case1.adb:918:24: if expression is an Ada 2012 feature
reproducer_major_end_case1.adb:918:24: unit must be compiled with -gnat2012 switch
reproducer_major_end_case1.adb:926:21: quantified expression is an Ada 2012 feature
reproducer_major_end_case1.adb:926:21: unit must be compiled with -gnat2012 switch
reproducer_major_end_case1.adb:927:24: quantified expression is an Ada 2012 feature
reproducer_major_end_case1.adb:927:24: unit must be compiled with -gnat2012 switch
reproducer_major_end_case1.adb:928:27: quantified expression is an Ada 2012 feature
reproducer_major_end_case1.adb:928:27: unit must be compiled with -gnat2012 switch
reproducer_major_end_case1.adb:932:21: quantified expression is an Ada 2012 feature
reproducer_major_end_case1.adb:932:21: unit must be compiled with -gnat2012 switch
reproducer_major_end_case1.adb:933:24: quantified expression is an Ada 2012 feature
reproducer_major_end_case1.adb:933:24: unit must be compiled with -gnat2012 switch
reproducer_major_end_case1.adb:934:27: quantified expression is an Ada 2012 feature
reproducer_major_end_case1.adb:934:27: unit must be compiled with -gnat2012 switch
reproducer_major_end_case1.adb:935:32: if expression is an Ada 2012 feature
reproducer_major_end_case1.adb:935:32: unit must be compiled with -gnat2012 switch
reproducer_major_end_case1.adb:940:21: quantified expression is an Ada 2012 feature
reproducer_major_end_case1.adb:940:21: unit must be compiled with -gnat2012 switch
reproducer_major_end_case1.adb:945:21: quantified expression is an Ada 2012 feature
reproducer_major_end_case1.adb:945:21: unit must be compiled with -gnat2012 switch
reproducer_major_end_case1.adb:946:24: if expression is an Ada 2012 feature
reproducer_major_end_case1.adb:946:24: unit must be compiled with -gnat2012 switch
reproducer_major_end_case1.adb:951:21: quantified expression is an Ada 2012 feature
reproducer_major_end_case1.adb:951:21: unit must be compiled with -gnat2012 switch
reproducer_major_end_case1.adb:952:24: quantified expression is an Ada 2012 feature
reproducer_major_end_case1.adb:952:24: unit must be compiled with -gnat2012 switch
reproducer_major_end_case1.adb:959:21: quantified expression is an Ada 2012 feature
reproducer_major_end_case1.adb:959:21: unit must be compiled with -gnat2012 switch
reproducer_major_end_case1.adb:960:24: if expression is an Ada 2012 feature
reproducer_major_end_case1.adb:960:24: unit must be compiled with -gnat2012 switch
reproducer_major_end_case1.adb:973:21: quantified expression is an Ada 2012 feature
reproducer_major_end_case1.adb:973:21: unit must be compiled with -gnat2012 switch
reproducer_major_end_case1.adb:974:15: if expression is an Ada 2012 feature
reproducer_major_end_case1.adb:974:15: unit must be compiled with -gnat2012 switch
reproducer_major_end_case1.adb:987:21: quantified expression is an Ada 2012 feature
reproducer_major_end_case1.adb:987:21: unit must be compiled with -gnat2012 switch
reproducer_major_end_case1.adb:988:24: if expression is an Ada 2012 feature
reproducer_major_end_case1.adb:988:24: unit must be compiled with -gnat2012 switch
reproducer_major_end_case1.adb:1005:21: quantified expression is an Ada 2012 feature
reproducer_major_end_case1.adb:1005:21: unit must be compiled with -gnat2012 switch
reproducer_major_end_case1.adb:1006:24: quantified expression is an Ada 2012 feature
reproducer_major_end_case1.adb:1006:24: unit must be compiled with -gnat2012 switch
reproducer_major_end_case1.adb:1007:27: quantified expression is an Ada 2012 feature
reproducer_major_end_case1.adb:1007:27: unit must be compiled with -gnat2012 switch
reproducer_major_end_case1.adb:1008:32: quantified expression is an Ada 2012 feature
reproducer_major_end_case1.adb:1008:32: unit must be compiled with -gnat2012 switch
reproducer_major_end_case1.adb:1009:37: if expression is an Ada 2012 feature
reproducer_major_end_case1.adb:1009:37: unit must be compiled with -gnat2012 switch
reproducer_major_end_case1.adb:1015:21: quantified expression is an Ada 2012 feature
reproducer_major_end_case1.adb:1015:21: unit must be compiled with -gnat2012 switch
reproducer_major_end_case1.adb:1016:24: quantified expression is an Ada 2012 feature
reproducer_major_end_case1.adb:1016:24: unit must be compiled with -gnat2012 switch
reproducer_major_end_case1.adb:1017:27: quantified expression is an Ada 2012 feature
reproducer_major_end_case1.adb:1017:27: unit must be compiled with -gnat2012 switch
reproducer_major_end_case1.adb:1018:32: quantified expression is an Ada 2012 feature
reproducer_major_end_case1.adb:1018:32: unit must be compiled with -gnat2012 switch
reproducer_major_end_case1.adb:1019:37: if expression is an Ada 2012 feature
reproducer_major_end_case1.adb:1019:37: unit must be compiled with -gnat2012 switch
reproducer_major_end_case1.adb:1025:21: quantified expression is an Ada 2012 feature
reproducer_major_end_case1.adb:1025:21: unit must be compiled with -gnat2012 switch
reproducer_major_end_case1.adb:1026:24: quantified expression is an Ada 2012 feature
reproducer_major_end_case1.adb:1026:24: unit must be compiled with -gnat2012 switch
reproducer_major_end_case1.adb:1027:27: quantified expression is an Ada 2012 feature
reproducer_major_end_case1.adb:1027:27: unit must be compiled with -gnat2012 switch
reproducer_major_end_case1.adb:1028:32: quantified expression is an Ada 2012 feature
reproducer_major_end_case1.adb:1028:32: unit must be compiled with -gnat2012 switch
reproducer_major_end_case1.adb:1029:37: if expression is an Ada 2012 feature
reproducer_major_end_case1.adb:1029:37: unit must be compiled with -gnat2012 switch
reproducer_major_end_case1.adb:1035:21: quantified expression is an Ada 2012 feature
reproducer_major_end_case1.adb:1035:21: unit must be compiled with -gnat2012 switch
reproducer_major_end_case1.adb:1036:24: quantified expression is an Ada 2012 feature
reproducer_major_end_case1.adb:1036:24: unit must be compiled with -gnat2012 switch
reproducer_major_end_case1.adb:1037:27: quantified expression is an Ada 2012 feature
reproducer_major_end_case1.adb:1037:27: unit must be compiled with -gnat2012 switch
reproducer_major_end_case1.adb:1038:32: quantified expression is an Ada 2012 feature
reproducer_major_end_case1.adb:1038:32: unit must be compiled with -gnat2012 switch
reproducer_major_end_case1.adb:1039:37: if expression is an Ada 2012 feature
reproducer_major_end_case1.adb:1039:37: unit must be compiled with -gnat2012 switch
reproducer_major_end_case1.adb:1045:21: quantified expression is an Ada 2012 feature
reproducer_major_end_case1.adb:1045:21: unit must be compiled with -gnat2012 switch
reproducer_major_end_case1.adb:1046:24: quantified expression is an Ada 2012 feature
reproducer_major_end_case1.adb:1046:24: unit must be compiled with -gnat2012 switch
reproducer_major_end_case1.adb:1047:27: if expression is an Ada 2012 feature
reproducer_major_end_case1.adb:1047:27: unit must be compiled with -gnat2012 switch
reproducer_major_end_case1.adb:1051:21: quantified expression is an Ada 2012 feature
reproducer_major_end_case1.adb:1051:21: unit must be compiled with -gnat2012 switch
reproducer_major_end_case1.adb:1052:24: quantified expression is an Ada 2012 feature
reproducer_major_end_case1.adb:1052:24: unit must be compiled with -gnat2012 switch
reproducer_major_end_case1.adb:1053:27: if expression is an Ada 2012 feature
reproducer_major_end_case1.adb:1053:27: unit must be compiled with -gnat2012 switch
reproducer_major_end_case1.adb:1057:21: quantified expression is an Ada 2012 feature
reproducer_major_end_case1.adb:1057:21: unit must be compiled with -gnat2012 switch
reproducer_major_end_case1.adb:1058:24: quantified expression is an Ada 2012 feature
reproducer_major_end_case1.adb:1058:24: unit must be compiled with -gnat2012 switch
reproducer_major_end_case1.adb:1059:27: if expression is an Ada 2012 feature
reproducer_major_end_case1.adb:1059:27: unit must be compiled with -gnat2012 switch
reproducer_major_end_case1.adb:1063:21: quantified expression is an Ada 2012 feature
reproducer_major_end_case1.adb:1063:21: unit must be compiled with -gnat2012 switch
reproducer_major_end_case1.adb:1064:24: quantified expression is an Ada 2012 feature
reproducer_major_end_case1.adb:1064:24: unit must be compiled with -gnat2012 switch
reproducer_major_end_case1.adb:1065:27: if expression is an Ada 2012 feature
reproducer_major_end_case1.adb:1065:27: unit must be compiled with -gnat2012 switch
reproducer_major_end_case1.adb:1069:21: quantified expression is an Ada 2012 feature
reproducer_major_end_case1.adb:1069:21: unit must be compiled with -gnat2012 switch
reproducer_major_end_case1.adb:1074:22: quantified expression is an Ada 2012 feature
reproducer_major_end_case1.adb:1074:22: unit must be compiled with -gnat2012 switch
reproducer_major_end_case1.adb:1075:15: if expression is an Ada 2012 feature
reproducer_major_end_case1.adb:1075:15: unit must be compiled with -gnat2012 switch
reproducer_major_end_case1.adb:1078:06: statement expected
reproducer_major_end_case1.adb:1083:22: quantified expression is an Ada 2012 feature
reproducer_major_end_case1.adb:1083:22: unit must be compiled with -gnat2012 switch
reproducer_major_end_case1.adb:1089:21: if expression is an Ada 2012 feature
reproducer_major_end_case1.adb:1089:21: unit must be compiled with -gnat2012 switch
reproducer_major_end_case1.adb:1093:21: if expression is an Ada 2012 feature
reproducer_major_end_case1.adb:1093:21: unit must be compiled with -gnat2012 switch
reproducer_major_end_case1.adb:1094:15: quantified expression is an Ada 2012 feature
reproducer_major_end_case1.adb:1094:15: unit must be compiled with -gnat2012 switch
reproducer_major_end_case1.adb:1097:21: quantified expression is an Ada 2012 feature
reproducer_major_end_case1.adb:1097:21: unit must be compiled with -gnat2012 switch
reproducer_major_end_case1.adb:1103:21: quantified expression is an Ada 2012 feature
reproducer_major_end_case1.adb:1103:21: unit must be compiled with -gnat2012 switch
reproducer_major_end_case1.adb:1104:24: if expression is an Ada 2012 feature
reproducer_major_end_case1.adb:1104:24: unit must be compiled with -gnat2012 switch
reproducer_major_end_case1.adb:1105:27: if expression is an Ada 2012 feature
reproducer_major_end_case1.adb:1105:27: unit must be compiled with -gnat2012 switch
reproducer_major_end_case1.adb:1112:27: if expression is an Ada 2012 feature
reproducer_major_end_case1.adb:1112:27: unit must be compiled with -gnat2012 switch
reproducer_major_end_case1.adb:1124:21: quantified expression is an Ada 2012 feature
reproducer_major_end_case1.adb:1124:21: unit must be compiled with -gnat2012 switch
reproducer_major_end_case1.adb:1125:24: if expression is an Ada 2012 feature
reproducer_major_end_case1.adb:1125:24: unit must be compiled with -gnat2012 switch
reproducer_major_end_case1.adb:1130:21: quantified expression is an Ada 2012 feature
reproducer_major_end_case1.adb:1130:21: unit must be compiled with -gnat2012 switch
reproducer_major_end_case1.adb:1131:24: if expression is an Ada 2012 feature
reproducer_major_end_case1.adb:1131:24: unit must be compiled with -gnat2012 switch
reproducer_major_end_case1.adb:1138:21: quantified expression is an Ada 2012 feature
reproducer_major_end_case1.adb:1138:21: unit must be compiled with -gnat2012 switch
reproducer_major_end_case1.adb:1139:24: if expression is an Ada 2012 feature
reproducer_major_end_case1.adb:1139:24: unit must be compiled with -gnat2012 switch
reproducer_major_end_case1.adb:1145:21: quantified expression is an Ada 2012 feature
reproducer_major_end_case1.adb:1145:21: unit must be compiled with -gnat2012 switch
reproducer_major_end_case1.adb:1146:24: if expression is an Ada 2012 feature
reproducer_major_end_case1.adb:1146:24: unit must be compiled with -gnat2012 switch
