simple_implementation.adb:8:07: warning: variable "Next_Minor_ID" is never read and never assigned
simple_implementation.adb:11:07: warning: variable "Now" is never read and never assigned
simple_implementation.adb:12:07: warning: variable "Cycles" is never read and never assigned
simple_implementation.adb:13:07: warning: variable "deadline" is never read and never assigned
